Problem set 4
…
regions <- regions |>
  mutate(region_name = case_when(
    region_name == "New York and New Jersey, Puerto Rico, Virgin Islands" ~ "NY, NJ, and Caribbean",
    TRUE ~ region_name
  ))

regions

# A tibble: 59 × 3
   state_name     region    region_name          
   <chr>          <list>    <chr>                
 1 Connecticut    <int [1]> New England          
 2 Maine          <int [1]> New England          
 3 Massachusetts  <int [1]> New England          
 4 New Hampshire  <int [1]> New England          
 5 Rhode Island   <int [1]> New England          
 6 Vermont        <int [1]> New England          
 7 New Jersey     <int [1]> NY, NJ, and Caribbean
 8 New York       <int [1]> NY, NJ, and Caribbean
 9 Puerto Rico    <int [1]> NY, NJ, and Caribbean
10 Virgin Islands <int [1]> NY, NJ, and Caribbean
# ℹ 49 more rows

Add a region and region name columns to the population data frame.

# population <- 

population <- population |>
  left_join(regions, by = "state_name")

population

# A tibble: 104 × 6
   state_name    year population state region    region_name    
   <chr>        <int>      <dbl> <chr> <list>    <chr>          
 1 Oklahoma      2020    3962031 OK    <int [1]> South Central  
 2 Oklahoma      2021    3986639 OK    <int [1]> South Central  
 3 Nebraska      2020    1961455 NE    <int [1]> Central Plains 
 4 Nebraska      2021    1963692 NE    <int [1]> Central Plains 
 5 Hawaii        2020    1451911 HI    <int [1]> Pacific        
 6 Hawaii        2021    1441553 HI    <int [1]> Pacific        
 7 South Dakota  2020     887099 SD    <int [1]> Mountain States
 8 South Dakota  2021     895376 SD    <int [1]> Mountain States
 9 Tennessee     2020    6920119 TN    <int [1]> Southeast      
10 Tennessee     2021    6975218 TN    <int [1]> Southeast      
# ℹ 94 more rows
From reading https://data.cdc.gov/ we learn the endpoint https://data.cdc.gov/resource/pwn4-m3yp.json provides state level data from SARS-COV2 cases. Use the httr2 tools you have learned to download this into a data frame. Is all the data there? If not, comment on why.

api <- "https://data.cdc.gov/resource/pwn4-m3yp.json"

cases_raw <- request(api) |>
  req_perform() |> 
  resp_body_json(simplifyVector = TRUE) %>% as_tibble()

req_perform(request(api)) |> resp_status() # check the status code of the api we requested

[1] 200

 cases_raw

# A tibble: 1,000 × 10
   date_updated         state start_date end_date tot_cases new_cases tot_deaths
   <chr>                <chr> <chr>      <chr>    <chr>     <chr>     <chr>     
 1 2023-02-23T00:00:00… AZ    2023-02-1… 2023-02… 2434631.0 3716.0    33042.0   
 2 2022-12-22T00:00:00… LA    2022-12-1… 2022-12… 1507707.0 4041.0    18345.0   
 3 2023-02-23T00:00:00… GA    2023-02-1… 2023-02… 3061141.0 5298.0    42324.0   
 4 2023-03-30T00:00:00… LA    2023-03-2… 2023-03… 1588259.0 2203.0    18858.0   
 5 2023-02-02T00:00:00… LA    2023-01-2… 2023-02… 1548508.0 5725.0    18572.0   
 6 2023-03-23T00:00:00… LA    2023-03-1… 2023-03… 1580709.0 1961.0    18835.0   
 7 2023-04-27T00:00:00… LA    2023-04-2… 2023-04… 1597070.0 1884.0    18937.0   
 8 2023-03-16T00:00:00… NV    2023-03-0… 2023-03… 891702.0  1233.0    11937.0   
 9 2023-05-11T00:00:00… FL    2023-05-0… 2023-05… 7572282.0 6937.0    88248.0   
10 2022-10-27T00:00:00… NYC   2022-10-2… 2022-10… 2928439.0 14590.0   42863.0   
# ℹ 990 more rows
# ℹ 3 more variables: new_deaths <chr>, new_historic_cases <chr>,
#   new_historic_deaths <chr>
…
req_perform(request(api)) |> resp_status() # check the status code of the api we requested

[1] 200

cases <- cases_raw |>
  mutate(
    state = state,
    date  = as.Date(end_date), # ISO 8601 Date
    cases = as.numeric(tot_cases) # ensure numeric
  ) |>
  select(state, date, cases)

cases

# A tibble: 10,380 × 3
   state date         cases
   <chr> <date>       <dbl>
 1 AZ    2023-02-22 2434631
 2 LA    2022-12-21 1507707
 3 GA    2023-02-22 3061141
 4 LA    2023-03-29 1588259
 5 LA    2023-02-01 1548508
 6 LA    2023-03-22 1580709
 7 LA    2023-04-26 1597070
 8 NV    2023-03-15  891702
 9 FL    2023-05-10 7572282
10 NYC   2022-10-26 2928439
# ℹ 10,370 more rows
…
[1] 200

deaths <- deaths_raw |>
mutate(
    state,
    date = as.Date(end_date),
    deaths = as.numeric(total_deaths)   
  ) |>
  select(state, date, deaths) |> 
  arrange(state, date)

deaths

# A tibble: 137,700 × 3
   state   date       deaths
   <chr>   <date>      <dbl>
 1 Alabama 2020-01-31   4729
 2 Alabama 2020-01-31     31
 3 Alabama 2020-01-31     71
 4 Alabama 2020-01-31     12
 5 Alabama 2020-01-31     16
 6 Alabama 2020-01-31     56
 7 Alabama 2020-01-31     72
 8 Alabama 2020-01-31     77
 9 Alabama 2020-01-31    103
10 Alabama 2020-01-31    132
# ℹ 137,690 more rows
…
